{
  "dependencies" : [
    {
      "identity" : "alamofire",
      "requirement" : {
        "range" : [
          {
            "lower_bound" : "5.4.4",
            "upper_bound" : "6.0.0"
          }
        ]
      },
      "type" : "sourceControl",
      "url" : "https://github.com/Alamofire/Alamofire.git"
    },
    {
      "identity" : "alamofireimage",
      "requirement" : {
        "range" : [
          {
            "lower_bound" : "4.1.0",
            "upper_bound" : "5.0.0"
          }
        ]
      },
      "type" : "sourceControl",
      "url" : "https://github.com/Alamofire/AlamofireImage"
    },
    {
      "identity" : "mbprogresshud",
      "requirement" : {
        "range" : [
          {
            "lower_bound" : "1.2.0",
            "upper_bound" : "2.0.0"
          }
        ]
      },
      "type" : "sourceControl",
      "url" : "https://github.com/jdg/MBProgressHUD"
    },
    {
      "identity" : "mockingbird",
      "requirement" : {
        "range" : [
          {
            "lower_bound" : "0.20.0",
            "upper_bound" : "0.21.0"
          }
        ]
      },
      "type" : "sourceControl",
      "url" : "https://github.com/birdrides/mockingbird.git"
    }
  ],
  "manifest_display_name" : "Beaconsmind",
  "name" : "Beaconsmind",
  "path" : "/Users/atom/Development/client-sdk-ios",
  "platforms" : [
    {
      "name" : "ios",
      "version" : "10.0"
    }
  ],
  "products" : [
    {
      "name" : "Beaconsmind",
      "targets" : [
        "Beaconsmind"
      ],
      "type" : {
        "library" : [
          "automatic"
        ]
      }
    }
  ],
  "targets" : [
    {
      "c99name" : "BeaconsmindTests",
      "module_type" : "SwiftTarget",
      "name" : "BeaconsmindTests",
      "path" : "Beaconsmind/BeaconsmindTests",
      "product_dependencies" : [
        "MBProgressHUD",
        "Mockingbird"
      ],
      "sources" : [
        "API/CodingTests.swift",
        "BaseTestCase.swift",
        "BeaconsmindTests.swift",
        "Extensions/ArrayExtensionsTests.swift",
        "Extensions/Beacon+Extensions.swift",
        "Mock/MockAPIClient.swift",
        "Mock/MockBeaconListenerDelegate.swift",
        "Mock/MockBeaconLocationManager.swift",
        "Mock/MockBeaconLocationManagerDelegate.swift",
        "Mock/MockBeaconNetworkingManagerDelegate.swift",
        "Mock/MockBeaconsmindDelegate.swift",
        "Mock/MockContextManager.swift",
        "Mock/MockContextManagerDelegate.swift",
        "Mock/MockStore.swift",
        "Model/BeaconContactSummaryTests.swift",
        "Repository/AuthenticationRepositoryTests.swift",
        "Service/BeaconContactsManagerTests.swift",
        "Service/BeaconMonitoringManagerLocationTests.swift",
        "Service/BeaconMonitoringManagerTests.swift",
        "Service/BeaconNetworkingManagerTests.swift",
        "Service/ContextManagerTests.swift",
        "Store/BeaconPersistenceTests.swift"
      ],
      "target_dependencies" : [
        "Beaconsmind"
      ],
      "type" : "test"
    },
    {
      "c99name" : "Beaconsmind",
      "module_type" : "SwiftTarget",
      "name" : "Beaconsmind",
      "path" : "Beaconsmind/Beaconsmind",
      "product_dependencies" : [
        "Alamofire",
        "AlamofireImage",
        "MBProgressHUD"
      ],
      "product_memberships" : [
        "Beaconsmind"
      ],
      "sources" : [
        "API/API.swift",
        "API/APIClientError.swift",
        "API/APIRequest.swift",
        "API/APIResponse.swift",
        "API/APIResult.swift",
        "API/APIService.swift",
        "API/AnyCodable.swift",
        "API/Coding.swift",
        "API/Models/AppConfigurationModel.swift",
        "API/Models/AppSettings.swift",
        "API/Models/AppTileConfigurationModel.swift",
        "API/Models/BarcodeResponse.swift",
        "API/Models/BarcodeType.swift",
        "API/Models/BlogPostModel.swift",
        "API/Models/BrandInfo.swift",
        "API/Models/Button.swift",
        "API/Models/ButtonModel.swift",
        "API/Models/CategoryModel.swift",
        "API/Models/ChangePasswordRequest.swift",
        "API/Models/CityView.swift",
        "API/Models/ConfigurationModel.swift",
        "API/Models/CoordinateView.swift",
        "API/Models/Coordinates.swift",
        "API/Models/CountryView.swift",
        "API/Models/CreateUserRequest.swift",
        "API/Models/CreateUserResponse.swift",
        "API/Models/CurrencyView.swift",
        "API/Models/CustomerCardModel.swift",
        "API/Models/DeviceModel.swift",
        "API/Models/DeviceRegistrationModel.swift",
        "API/Models/EventModel.swift",
        "API/Models/FeaturedItemModel.swift",
        "API/Models/HomeScreenResponse.swift",
        "API/Models/ImageUploadResponse.swift",
        "API/Models/ImageUploadSettings.swift",
        "API/Models/ImportUserRequest.swift",
        "API/Models/LatLongModel.swift",
        "API/Models/NewsItem.swift",
        "API/Models/NotificationModel.swift",
        "API/Models/OfferResponse.swift",
        "API/Models/OfferStatusRequest.swift",
        "API/Models/PingBeaconRequest.swift",
        "API/Models/PingBeaconsRequest.swift",
        "API/Models/ProblemDetails.swift",
        "API/Models/ProductModel.swift",
        "API/Models/ProfileResponse.swift",
        "API/Models/ProviderType.swift",
        "API/Models/RegisterViaFacebookRequest.swift",
        "API/Models/RegisterViaSocialProviderRequest.swift",
        "API/Models/ResetPasswordRequest.swift",
        "API/Models/SaveTouchpointRequest.swift",
        "API/Models/SentMessageModel.swift",
        "API/Models/StoreBeaconInfo.swift",
        "API/Models/StoreInfo.swift",
        "API/Models/StoreModel.swift",
        "API/Models/SetFlagRequest.swift",
        "API/Models/StoreOpeningTimeView.swift",
        "API/Models/TokenResponse.swift",
        "API/Models/TouchpointType.swift",
        "API/Models/UpdateAvatarRequest.swift",
        "API/Models/UpdateProfileRequest.swift",
        "API/Models/WebConfigView.swift",
        "API/RequestBehaviour.swift",
        "API/Requests/Accounts/AccountsCreateUser.swift",
        "API/Requests/Accounts/AccountsGetClubId.swift",
        "API/Requests/Accounts/AccountsGetProfile.swift",
        "API/Requests/Accounts/AccountsImportUser.swift",
        "API/Requests/Accounts/AccountsPostUpdateProfile.swift",
        "API/Requests/Accounts/AccountsRegisterViaFacebook.swift",
        "API/Requests/Accounts/AccountsRegisterViaSocialProviders.swift",
        "API/Requests/Accounts/AccountsUpdateDevice.swift",
        "API/Requests/Accounts/AccountsUpdateProfile.swift",
        "API/Requests/Auth/AuthToken.swift",
        "API/Requests/Configuration/ConfigurationGetBeacons.swift",
        "API/Requests/Configuration/ConfigurationGetConfiguration.swift",
        "API/Requests/Configuration/ConfigurationGetEnvironmentConfiguration.swift",
        "API/Requests/Configuration/ConfigurationGetWebConfiguration.swift",
        "API/Requests/Dashboard/DashboardGetBlogPosts.swift",
        "API/Requests/Dashboard/DashboardGetFeaturedItems.swift",
        "API/Requests/Image/ImageCreate.swift",
        "API/Requests/Locations/LocationsGetCitiesForCountry.swift",
        "API/Requests/Locations/LocationsGetCountries.swift",
        "API/Requests/News/NewsGetHomeScreen.swift",
        "API/Requests/News/NewsGetNews.swift",
        "API/Requests/Notifications/NotificationsGetAll.swift",
        "API/Requests/Notifications/NotificationsGetNonRedeemable.swift",
        "API/Requests/Notifications/NotificationsGetRedeemable.swift",
        "API/Requests/Offers/OffersClicked.swift",
        "API/Requests/Offers/OffersGetOffer.swift",
        "API/Requests/Offers/OffersGetOffers.swift",
        "API/Requests/Offers/OffersRead.swift",
        "API/Requests/Offers/OffersReceived.swift",
        "API/Requests/Offers/OffersRedeemed.swift",
        "API/Requests/Password/PasswordChangePassword.swift",
        "API/Requests/Password/PasswordResetPassword.swift",
        "API/Requests/Password/PasswordResetPasswordRequest.swift",
        "API/Requests/Ping/PingPingBeacon.swift",
        "API/Requests/Ping/PingPingMultipleBeacons.swift",
        "API/Requests/Products/ProductsGetCategories.swift",
        "API/Requests/Products/ProductsGetProductsByCategory.swift",
        "API/Requests/Profile/ProfileGetCustomerCard.swift",
        "API/Requests/Profile/ProfileUpdateAvatar.swift",
        "API/Requests/Stores/StoresGetStores.swift",
        "API/Requests/Stores/StoresSetFavorite.swift",
        "API/Requests/Touchpoints/TouchpointsSaveTouchpoint.swift",
        "Services/API/APIClient.swift",
        "Services/Beaconsmind.swift",
        "Services/Extensions/Array+Extensions.swift",
        "Services/Extensions/Bool+Extensions.swift",
        "Services/Extensions/CLBeacon+Extensions.swift",
        "Services/Extensions/CLBeaconRegion+Extensions.swift",
        "Services/Extensions/Data+Extensions.swift",
        "Services/Extensions/Date+Extensions.swift",
        "Services/Extensions/Double+Extensions.swift",
        "Services/Extensions/Int+Extensions.swift",
        "Services/Extensions/String+Extensions.swift",
        "Services/Extensions/UIDevice+Extensions.swift",
        "Services/Extensions/UIView+Extensions.swift",
        "Services/Model/APIContext.swift",
        "Services/Model/Beacon.swift",
        "Services/Model/BeaconContactSummary.swift",
        "Services/Model/Constants.swift",
        "Services/Model/Event.swift",
        "Services/Model/IDeviceInfo.swift",
        "Services/Model/LocationError.swift",
        "Services/Model/OfferPayload.swift",
        "Services/Model/RequestState.swift",
        "Services/Model/SDKApiError.swift",
        "Services/Model/SDKApiResult.swift",
        "Services/Repository/AuthenticationRepository.swift",
        "Services/Repository/BeaconsRepository.swift",
        "Services/Repository/DashboardRepository.swift",
        "Services/Repository/ImageRepository.swift",
        "Services/Repository/LocationsRepository.swift",
        "Services/Repository/NotificationsRepository.swift",
        "Services/Repository/OffersRepository.swift",
        "Services/Repository/PasswordRepository.swift",
        "Services/Repository/ProductsRepository.swift",
        "Services/Repository/ProfileRepository.swift",
        "Services/Repository/StoreRepository.swift",
        "Services/Repository/TouchpointsRepository.swift",
        "Services/Service/BeaconContactsManager.swift",
        "Services/Service/BeaconListenerDelegate.swift",
        "Services/Service/BeaconLocationManager.swift",
        "Services/Service/BeaconMonitoringManager.swift",
        "Services/Service/BeaconNetworkingManager.swift",
        "Services/Service/ContextManager.swift",
        "Services/Service/JWTDecoder.swift",
        "Services/Service/Logging.swift",
        "Services/Store/BeaconPersistence.swift",
        "Services/Store/KeychainWrapper.swift",
        "Services/Store/Store.swift",
        "Services/UI/Base/BeaconsmindCell.swift",
        "Services/UI/Base/BeaconsmindViewController.swift",
        "Services/UI/Offers/OfferActionButton.swift",
        "Services/UI/Offers/OfferCell.swift",
        "Services/UI/Offers/OfferDetailViewController.swift",
        "Services/UI/Offers/OffersViewController.swift",
        "Services/UI/Theme/BeaconsmindUI.swift",
        "Services/UI/Theme/LocalizedStrings.swift",
        "Services/UI/Theme/StyleSheet.swift"
      ],
      "type" : "library"
    }
  ],
  "tools_version" : "5.5"
}
